﻿"Data (Užsakymo įvykdymo data)";"Kliento kodas (įmonės kodas)";"Kliento PVM kodas";"Kliento pavadinimas";Gatvė;"Namo Nr.";"Buto Nr.";"Pašto indeksas";Miestas;Šalis;"El. Paštas";"Tel. Nr.";"Kliento tipas (privatus asmuo / įmonė)";Produktas;"Produkto kodas";"Produktų kiekis";"Produkto suma";"Užsakymo nr"
"2022-01 02";;;"Myroslava Ciginas";"Didlaukio g.";41;;08321;Vilnius;LT;sobkomyroslava@gmail.com;+37065553329;"Privatus asmuo";"Dviejų Dalių Dėžutės (ECO Ruda, 150 x 150 x 20 mm)";200117;100;30.25;000000145
"2022-01 02";;;"Myroslava Ciginas";"Didlaukio g.";41;;08321;Vilnius;LT;sobkomyroslava@gmail.com;+37065553329;"Privatus asmuo";Shipping;Shipping;0;3.79;000000145
