{
  "entrypoints": {
    "appProductV3": {
      "css": [
        "/bootstrap-theme-product-v3/appProductV3.css"
      ],
      "js": [
        "/bootstrap-theme-product-v3/appProductV3.js"
      ]
    }
  }
}